\beamer@endinputifotherversion {3.36pt}
\beamer@sectionintoc {1}{Experiment Description}{3}{0}{1}
\beamer@sectionintoc {2}{Worst-case scenario}{7}{0}{2}
\beamer@sectionintoc {3}{Nash equilibrium}{9}{0}{3}
\beamer@sectionintoc {4}{Socially optimal behavior}{12}{0}{4}
