\beamer@endinputifotherversion {3.36pt}
\beamer@sectionintoc {1}{Experiment Description}{6}{0}{1}
\beamer@sectionintoc {2}{Worst-case scenario}{10}{0}{2}
\beamer@sectionintoc {3}{Nash equilibrium}{13}{0}{3}
\beamer@sectionintoc {4}{Socially optimal behavior}{16}{0}{4}
