\relax 
\providecommand\hyper@newdestlabel[2]{}
\providecommand\HyperFirstAtBeginDocument{\AtBeginDocument}
\HyperFirstAtBeginDocument{\ifx\hyper@anchor\@undefined
\global\let\oldcontentsline\contentsline
\gdef\contentsline#1#2#3#4{\oldcontentsline{#1}{#2}{#3}}
\global\let\oldnewlabel\newlabel
\gdef\newlabel#1#2{\newlabelxx{#1}#2}
\gdef\newlabelxx#1#2#3#4#5#6{\oldnewlabel{#1}{{#2}{#3}}}
\AtEndDocument{\ifx\hyper@anchor\@undefined
\let\contentsline\oldcontentsline
\let\newlabel\oldnewlabel
\fi}
\fi}
\global\let\hyper@last\relax 
\gdef\HyperFirstAtBeginDocument#1{#1}
\providecommand\HyField@AuxAddToFields[1]{}
\providecommand\HyField@AuxAddToCoFields[2]{}
\@writefile{toc}{\beamer@endinputifotherversion {3.36pt}}
\@writefile{nav}{\beamer@endinputifotherversion {3.36pt}}
\@writefile{nav}{\headcommand {\slideentry {0}{0}{1}{1/1}{}{0}}}
\@writefile{nav}{\headcommand {\beamer@framepages {1}{1}}}
\@writefile{nav}{\headcommand {\slideentry {0}{0}{2}{2/2}{}{0}}}
\@writefile{nav}{\headcommand {\beamer@framepages {2}{2}}}
\@auxtag{sections/GameDescription}{%
\@writefile{toc}{\beamer@sectionintoc {1}{Game Description}{3}{0}{1}}
}
\@auxtag{sections/GameDescription}{%
\@writefile{nav}{\headcommand {\sectionentry {1}{Game Description}{3}{Game Description}{0}}}
}
\@auxtag{sections/GameDescription}{%
\@writefile{nav}{\headcommand {\beamer@sectionpages {1}{2}}}
}
\@auxtag{sections/GameDescription}{%
\@writefile{nav}{\headcommand {\beamer@subsectionpages {1}{2}}}
}
\@auxtag{sections/GameDescription}{%
\@writefile{nav}{\headcommand {\slideentry {1}{0}{1}{3/3}{}{0}}}
}
\@auxtag{sections/GameDescription}{%
\@writefile{nav}{\headcommand {\beamer@framepages {3}{3}}}
}
\@auxtag{sections/GameDescription}{%
\@writefile{nav}{\headcommand {\slideentry {1}{0}{2}{4/4}{}{0}}}
}
\@auxtag{sections/GameDescription}{%
\@writefile{nav}{\headcommand {\beamer@framepages {4}{4}}}
}
\@auxtag{sections/GameDescription}{%
\@writefile{nav}{\headcommand {\slideentry {1}{0}{3}{5/5}{}{0}}}
}
\@auxtag{sections/GameDescription}{%
\@writefile{nav}{\headcommand {\beamer@framepages {5}{5}}}
}
\@auxtag{sections/GameDescription}{%
\@writefile{nav}{\headcommand {\slideentry {1}{0}{4}{6/6}{}{0}}}
}
\@auxtag{sections/GameDescription}{%
\@writefile{nav}{\headcommand {\beamer@framepages {6}{6}}}
}
\@auxtag{sections/GameDescription}{%
\@writefile{nav}{\headcommand {\slideentry {1}{0}{5}{7/7}{}{0}}}
}
\@auxtag{sections/GameDescription}{%
\@writefile{nav}{\headcommand {\beamer@framepages {7}{7}}}
}
\@auxtag{sections/GameDescription}{%
\@writefile{nav}{\headcommand {\slideentry {1}{0}{6}{8/8}{}{0}}}
}
\@auxtag{sections/GameDescription}{%
\@writefile{nav}{\headcommand {\beamer@framepages {8}{8}}}
}
\@setckpt{sections/GameDescription}{%
\setcounter{page}{9}
\setcounter{equation}{0}
\setcounter{enumi}{2}
\setcounter{enumii}{0}
\setcounter{enumiii}{0}
\setcounter{enumiv}{0}
\setcounter{footnote}{0}
\setcounter{mpfootnote}{0}
\setcounter{beamerpauses}{0}
\setcounter{bookmark@seq@number}{2}
\setcounter{lecture}{0}
\setcounter{part}{0}
\setcounter{section}{2}
\setcounter{subsection}{0}
\setcounter{subsubsection}{0}
\setcounter{subsectionslide}{1}
\setcounter{framenumber}{9}
\setcounter{figure}{0}
\setcounter{table}{0}
\setcounter{parentequation}{0}
\setcounter{theorem}{0}
\setcounter{lstnumber}{1}
\setcounter{IncludeDepth}{1}
\setcounter{section@level}{0}
\setcounter{lstlisting}{0}
}
\@auxtag{sections/LowestPayoff}{%
\@writefile{toc}{\beamer@sectionintoc {2}{Lowest payoff outcome}{9}{0}{2}}
}
\@auxtag{sections/LowestPayoff}{%
\@writefile{nav}{\headcommand {\sectionentry {2}{Lowest payoff outcome}{9}{Lowest payoff outcome}{0}}}
}
\@auxtag{sections/LowestPayoff}{%
\@writefile{nav}{\headcommand {\beamer@sectionpages {3}{8}}}
}
\@auxtag{sections/LowestPayoff}{%
\@writefile{nav}{\headcommand {\beamer@subsectionpages {3}{8}}}
}
\@auxtag{sections/LowestPayoff}{%
\@writefile{nav}{\headcommand {\slideentry {2}{0}{1}{9/9}{}{0}}}
}
\@auxtag{sections/LowestPayoff}{%
\@writefile{nav}{\headcommand {\beamer@framepages {9}{9}}}
}
\@auxtag{sections/LowestPayoff}{%
\@writefile{nav}{\headcommand {\slideentry {2}{0}{2}{10/10}{}{0}}}
}
\@auxtag{sections/LowestPayoff}{%
\@writefile{nav}{\headcommand {\beamer@framepages {10}{10}}}
}
\@setckpt{sections/LowestPayoff}{%
\setcounter{page}{11}
\setcounter{equation}{0}
\setcounter{enumi}{2}
\setcounter{enumii}{0}
\setcounter{enumiii}{0}
\setcounter{enumiv}{0}
\setcounter{footnote}{0}
\setcounter{mpfootnote}{0}
\setcounter{beamerpauses}{0}
\setcounter{bookmark@seq@number}{3}
\setcounter{lecture}{0}
\setcounter{part}{0}
\setcounter{section}{3}
\setcounter{subsection}{0}
\setcounter{subsubsection}{0}
\setcounter{subsectionslide}{1}
\setcounter{framenumber}{11}
\setcounter{figure}{0}
\setcounter{table}{0}
\setcounter{parentequation}{0}
\setcounter{theorem}{0}
\setcounter{lstnumber}{1}
\setcounter{IncludeDepth}{1}
\setcounter{section@level}{0}
\setcounter{lstlisting}{0}
}
\@auxtag{sections/NashEquilibrium}{%
\@writefile{toc}{\beamer@sectionintoc {3}{Nash equilibrium}{11}{0}{3}}
}
\@auxtag{sections/NashEquilibrium}{%
\@writefile{nav}{\headcommand {\sectionentry {3}{Nash equilibrium}{11}{Nash equilibrium}{0}}}
}
\@auxtag{sections/NashEquilibrium}{%
\@writefile{nav}{\headcommand {\beamer@sectionpages {9}{10}}}
}
\@auxtag{sections/NashEquilibrium}{%
\@writefile{nav}{\headcommand {\beamer@subsectionpages {9}{10}}}
}
\@auxtag{sections/NashEquilibrium}{%
\@writefile{nav}{\headcommand {\slideentry {3}{0}{1}{11/11}{}{0}}}
}
\@auxtag{sections/NashEquilibrium}{%
\@writefile{nav}{\headcommand {\beamer@framepages {11}{11}}}
}
\@auxtag{sections/NashEquilibrium}{%
\@writefile{nav}{\headcommand {\slideentry {3}{0}{2}{12/12}{}{0}}}
}
\@auxtag{sections/NashEquilibrium}{%
\@writefile{nav}{\headcommand {\beamer@framepages {12}{12}}}
}
\@auxtag{sections/NashEquilibrium}{%
\@writefile{nav}{\headcommand {\slideentry {3}{0}{3}{13/13}{}{0}}}
}
\@auxtag{sections/NashEquilibrium}{%
\@writefile{nav}{\headcommand {\beamer@framepages {13}{13}}}
}
\@setckpt{sections/NashEquilibrium}{%
\setcounter{page}{14}
\setcounter{equation}{0}
\setcounter{enumi}{2}
\setcounter{enumii}{0}
\setcounter{enumiii}{0}
\setcounter{enumiv}{0}
\setcounter{footnote}{0}
\setcounter{mpfootnote}{0}
\setcounter{beamerpauses}{0}
\setcounter{bookmark@seq@number}{4}
\setcounter{lecture}{0}
\setcounter{part}{0}
\setcounter{section}{4}
\setcounter{subsection}{0}
\setcounter{subsubsection}{0}
\setcounter{subsectionslide}{1}
\setcounter{framenumber}{14}
\setcounter{figure}{0}
\setcounter{table}{0}
\setcounter{parentequation}{0}
\setcounter{theorem}{0}
\setcounter{lstnumber}{1}
\setcounter{IncludeDepth}{1}
\setcounter{section@level}{0}
\setcounter{lstlisting}{0}
}
\@auxtag{sections/SociallyOptimalScenario}{%
\@writefile{toc}{\beamer@sectionintoc {4}{Socially optimal behavior}{14}{0}{4}}
}
\@auxtag{sections/SociallyOptimalScenario}{%
\@writefile{nav}{\headcommand {\sectionentry {4}{Socially optimal behavior}{14}{Socially optimal behavior}{0}}}
}
\@auxtag{sections/SociallyOptimalScenario}{%
\@writefile{nav}{\headcommand {\beamer@sectionpages {11}{13}}}
}
\@auxtag{sections/SociallyOptimalScenario}{%
\@writefile{nav}{\headcommand {\beamer@subsectionpages {11}{13}}}
}
\@auxtag{sections/SociallyOptimalScenario}{%
\@writefile{nav}{\headcommand {\slideentry {4}{0}{1}{14/14}{}{0}}}
}
\@auxtag{sections/SociallyOptimalScenario}{%
\@writefile{nav}{\headcommand {\beamer@framepages {14}{14}}}
}
\@auxtag{sections/SociallyOptimalScenario}{%
\@writefile{toc}{\beamer@subsectionintoc {4}{1}{The mathematical model}{15}{0}{4}}
}
\@auxtag{sections/SociallyOptimalScenario}{%
\@writefile{nav}{\headcommand {\beamer@subsectionentry {0}{4}{1}{15}{The mathematical model}}\headcommand {\beamer@subsectionpages {14}{14}}}
}
\@auxtag{sections/SociallyOptimalScenario}{%
\@writefile{nav}{\headcommand {\slideentry {4}{1}{1}{15/15}{The mathematical model}{0}}}
}
\@auxtag{sections/SociallyOptimalScenario}{%
\@writefile{nav}{\headcommand {\beamer@framepages {15}{15}}}
}
\@auxtag{sections/SociallyOptimalScenario}{%
\@writefile{nav}{\headcommand {\slideentry {4}{1}{2}{16/16}{The mathematical model}{0}}}
}
\@auxtag{sections/SociallyOptimalScenario}{%
\@writefile{nav}{\headcommand {\beamer@framepages {16}{16}}}
}
\@auxtag{sections/SociallyOptimalScenario}{%
\@writefile{nav}{\headcommand {\slideentry {4}{1}{3}{17/17}{The mathematical model}{0}}}
}
\@auxtag{sections/SociallyOptimalScenario}{%
\@writefile{nav}{\headcommand {\beamer@framepages {17}{17}}}
}
\@auxtag{sections/SociallyOptimalScenario}{%
\@writefile{toc}{\beamer@subsectionintoc {4}{2}{The computational model}{18}{0}{4}}
}
\@auxtag{sections/SociallyOptimalScenario}{%
\@writefile{nav}{\headcommand {\beamer@subsectionentry {0}{4}{2}{18}{The computational model}}\headcommand {\beamer@subsectionpages {15}{17}}}
}
\@auxtag{sections/SociallyOptimalScenario}{%
\@writefile{nav}{\headcommand {\slideentry {4}{2}{1}{18/18}{The computational model}{0}}}
}
\@auxtag{sections/SociallyOptimalScenario}{%
\@writefile{nav}{\headcommand {\beamer@framepages {18}{18}}}
}
\@auxtag{sections/SociallyOptimalScenario}{%
\@writefile{nav}{\headcommand {\slideentry {4}{2}{2}{19/19}{The computational model}{0}}}
}
\@auxtag{sections/SociallyOptimalScenario}{%
\@writefile{nav}{\headcommand {\beamer@framepages {19}{19}}}
}
\@auxtag{sections/SociallyOptimalScenario}{%
\@writefile{toc}{\beamer@subsectionintoc {4}{3}{Regression Analysis}{20}{0}{4}}
}
\@auxtag{sections/SociallyOptimalScenario}{%
\@writefile{nav}{\headcommand {\beamer@subsectionentry {0}{4}{3}{20}{Regression Analysis}}\headcommand {\beamer@subsectionpages {18}{19}}}
}
\@auxtag{sections/SociallyOptimalScenario}{%
\@writefile{nav}{\headcommand {\slideentry {4}{3}{1}{20/20}{Regression Analysis}{0}}}
}
\@auxtag{sections/SociallyOptimalScenario}{%
\@writefile{nav}{\headcommand {\beamer@framepages {20}{20}}}
}
\@auxtag{sections/SociallyOptimalScenario}{%
\@writefile{nav}{\headcommand {\slideentry {4}{3}{2}{21/21}{Regression Analysis}{0}}}
}
\@auxtag{sections/SociallyOptimalScenario}{%
\@writefile{nav}{\headcommand {\beamer@framepages {21}{21}}}
}
\@writefile{nav}{\headcommand {\beamer@partpages {1}{21}}}
\@writefile{nav}{\headcommand {\beamer@subsectionpages {20}{21}}}
\@writefile{nav}{\headcommand {\beamer@sectionpages {14}{21}}}
\@writefile{nav}{\headcommand {\beamer@documentpages {21}}}
\@writefile{nav}{\headcommand {\def \inserttotalframenumber {21}}}
